DAR F21 Project Status Notebook Assignment 5
…
Of the 25 frequent bad borrowers, 15 have already had at least one liquidation.

borrowers_br <- worst_borrowers_df %>%
  select("onBehalfOf_alias", "type", "amountUSD") %>%
  filter(type == "borrow" | type == "repay") %>%
  group_by(onBehalfOf_alias, type) %>%
  summarize_all(sum)
borrowers_br <- borrowers_br %>%
  group_by(onBehalfOf_alias) %>%
  mutate(amountUSD_prop = 100 * amountUSD / sum(amountUSD))
borrowers_br$liquidator <- ifelse(borrowers_br$onBehalfOf_alias %in% bad_liquidator_users, "Yes", "No")
borrowers_br

## # A tibble: 45 x 5
## # Groups:   onBehalfOf_alias [25]
##    onBehalfOf_alias  type   amountUSD amountUSD_prop liquidator
##    <fct>             <fct>      <dbl>          <dbl> <chr>     
##  1 Benjamin Richters borrow   394936.           84.3 Yes       
##  2 Benjamin Richters repay     73565.           15.7 Yes       
##  3 Bernice Rodriguez borrow  3566220.           49.9 No        
##  4 Bernice Rodriguez repay   3583655.           50.1 No        
##  5 Carl Briant       borrow   875241.           56.6 No        
##  6 Carl Briant       repay    670059.           43.4 No        
##  7 Christopher Cape  borrow  2168169.           77.6 No        
##  8 Christopher Cape  repay    624764.           22.4 No        
##  9 Daniel Lynch      borrow   432463.           90.0 No        
## 10 Daniel Lynch      repay     48065.           10.0 No        
## #  with 35 more rows
…
It makes sense for the people who have borrowed a lot and repayed very little to have been liquidated in their past. For people like Lucio Hargis, Im curious if theyve only borrowed very recently.

worst_borrowers_df %>%
  filter(type == "borrow") %>%
  group_by(onBehalfOf_alias) %>%
  filter(row_number() == n()) %>%
  select("onBehalfOf_alias", "date") %>%
  arrange(onBehalfOf_alias)

## # A tibble: 25 x 2
## # Groups:   onBehalfOf_alias [25]
##    onBehalfOf_alias  date      
##    <fct>             <date>    
##  1 Benjamin Richters 2021-02-26
##  2 Bernice Rodriguez 2021-05-19
##  3 Carl Briant       2021-10-15
##  4 Christopher Cape  2021-04-24
##  5 Daniel Lynch      2021-03-02
##  6 Darrell Kingston  2021-03-10
##  7 Dorthy Thomas     2021-05-16
##  8 Florence Johnson  2021-05-03
##  9 Frank Lennon      2021-10-14
## 10 Frederick Stull   2021-02-18
## #  with 15 more rows
…
